…
2      ta 0.6147 0.0038  0.6122  0.6273 -0.05283738 0.03356320  -0.94    +--???
3       c 0.0019 0.0002  0.0015  0.0020  0.48061485 0.39345329  -0.65    ?+-???
4       c 0.0078 0.0006  0.0055  0.0083  0.04499036 0.18951367  -0.09    -++???
5       g 0.0012 0.0001  0.0011  0.0013  0.12977296 0.44677803  -0.11    ?++???
6       g 0.9231 0.0015  0.9224  0.9279  0.02133709 0.06211415  -0.14    --+???
  HetISq HetChiSq HetDf  logHetP    N
1   20.8    2.527     2 -0.54870 2491
2    5.2    2.109     2 -0.45790 2491
3   59.4    2.465     1 -0.93400 2295
4    0.0    0.590     2 -0.12820 2491
5    0.0    0.001     1 -0.01041 2295
6    0.0    0.418     2 -0.09076 2491
>
>       qtlFinder(d)
# A tibble: 43 × 14
# Groups:   chrom, regionStart, regionEnd [43]
   chrom     start      end rsid  a1    a2       EAF      b     SE mlog10p     n
   <chr>     <dbl>    <dbl> <chr> <chr> <chr>  <dbl>  <dbl>  <dbl>   <dbl> <int>
 1 chr1   27626659   2.76e7 1:27… a     g     0.0162  0.581 0.123     5.6   2491
 2 chr1  165685067   1.66e8 1:16… a     c     0.55   -0.135 0.0290    5.47  2491
 3 chr10  15722440   1.57e7 10:1… t     g     0.998   2.15  0.461     5.52  2295
 4 chr10 102506959   1.03e8 10:1… a     g     0.996  -1.27  0.260     5.97  2491
 5 chr11  33883524   3.39e7 11:3… t     c     0.999   2.68  0.597     5.17  1488
 6 chr11  87910276   8.79e7 11:8… a     c     0.995   0.995 0.203     6     2491
 7 chr12  26097119   2.61e7 12:2… t     c     0.943   0.262 0.0607    4.79  2491
 8 chr12  48898823   4.89e7 12:4… a     t     0.0022 -2.20  0.480     5.35  1684
 9 chr13 113800622   1.14e8 13:1… t     c     0.373  -0.541 0.0306   69.0   2491
10 chr14  94750486   9.48e7 14:9… t     c     0.989   1.52  0.136    28.5   2491
# ℹ 33 more rows
# ℹ 3 more variables: regionStart <dbl>, regionEnd <dbl>, .overlap <int>
# ℹ Use `print(n = ...)` to see more rows
…
>
> m <- valr::bed_merge(p, max_dist = 1e6)
>
> lead <- valr::bed_intersect(
+           p,
+           m,
+           suffix = c("", ".region"),
+           min_overlap = 0L
+         ) |>
+         dplyr::group_by(chrom,
+                         start.region,
+                         end.region) |>
+         dplyr::slice(which.min(log10P))
> lead
# A tibble: 43 × 7
# Groups:   chrom, start.region, end.region [43]
   chrom     start       end log10P start.region end.region .overlap
   <chr>     <dbl>     <dbl>  <dbl>        <dbl>      <dbl>    <int>
 1 chr1   27626659  27626659  -5.6         10177  121485143        0
 2 chr1  165685067 165685067  -5.47    142535439  249240543        0
 3 chr10  15722440  15722440  -5.52        60494   39154762        0
 4 chr10 102506959 102506959  -5.97     42354982  135524373        0
 5 chr11  33883524  33883524  -5.17        61395   51594133        0
 6 chr11  87910276  87910276  -6        54694393  134946451        0
 7 chr12  26097119  26097119  -4.79        60317   34856670        0
 8 chr12  48898823  48898823  -5.35     37856765  133841616        0
 9 chr13 113800622 113800622 -69.0      19020047  115109852        0
10 chr14  94750486  94750486 -28.5      19000059  107289436        0
# ℹ 33 more rows
# ℹ Use `print(n = ...)` to see more rows
